EFICIENCIA DE USO DE AGUA EN QUINCE GENOTIPOS DE PAPA (Solanum tuberosum L.) BAJO CONDICIONES DE ESTRÉS HÍDRICO POR SEQUÍA
…
library(inti)

model <- remove_outliers(data = fb
                             , formula = leafdw ~ riego * geno + (1|bloque)
                         , plot_diag = T)
model
## $data
## $data$raw
## # A tibble: 150 × 5
##    index riego    geno  bloque leafdw
##    <chr> <chr>    <chr> <chr>   <dbl>
##  1 1     sequia   G01   II      13.3 
##  2 2     sequia   G02   IV       9.42
##  3 3     irrigado G01   III     18.2 
##  4 4     sequia   G02   I        8.84
##  5 5     irrigado G03   II      14.6 
##  6 6     irrigado G04   V       19.8 
##  7 7     irrigado G01   I       15.0 
##  8 8     irrigado G05   IV      19.9 
##  9 9     sequia   G06   II      19.9 
## 10 10    sequia   G05   I       12.3 
## # ℹ 140 more rows
## 
## $data$clean
##     index    riego geno bloque leafdw
## 1       1   sequia  G01     II  13.28
## 2       2   sequia  G02     IV   9.42
## 3       3 irrigado  G01    III  18.22
## 4       4   sequia  G02      I   8.84
## 5       5 irrigado  G03     II  14.55
…
library(inti)

model <- remove_outliers(data = fb
                             , formula = rootdw ~ riego * geno + (1|bloque)
                         , plot_diag = T)
model
## $data
## $data$raw
## # A tibble: 150 × 5
##    index riego    geno  bloque rootdw
##    <chr> <chr>    <chr> <chr>   <dbl>
##  1 1     sequia   G01   II       3.83
##  2 2     sequia   G02   IV       2.1 
##  3 3     irrigado G01   III      3.16
##  4 4     sequia   G02   I        2   
##  5 5     irrigado G03   II       1.83
##  6 6     irrigado G04   V        2.83
##  7 7     irrigado G01   I        2.28
##  8 8     irrigado G05   IV       3.65
##  9 9     sequia   G06   II       4.04
## 10 10    sequia   G05   I        4.17
## # ℹ 140 more rows
## 
## $data$clean
##     index    riego geno bloque rootdw
## 1       1   sequia  G01     II   3.83
## 2       2   sequia  G02     IV   2.10
## 3       3 irrigado  G01    III   3.16
## 4       4   sequia  G02      I   2.00
## 5       5 irrigado  G03     II   1.83
…
library(inti)

model <- remove_outliers(data = fb
                             , formula = tubdw ~ riego * geno + (1|bloque)
                         , plot_diag = T)
model
## $data
## $data$raw
## # A tibble: 150 × 5
##    index riego    geno  bloque tubdw
##    <chr> <chr>    <chr> <chr>  <dbl>
##  1 1     sequia   G01   II     19.8 
##  2 2     sequia   G02   IV     17.7 
##  3 3     irrigado G01   III    38.0 
##  4 4     sequia   G02   I      13.5 
##  5 5     irrigado G03   II     51.2 
##  6 6     irrigado G04   V      62.5 
##  7 7     irrigado G01   I      22.4 
##  8 8     irrigado G05   IV     51.4 
##  9 9     sequia   G06   II      2.37
## 10 10    sequia   G05   I      28.7 
## # ℹ 140 more rows
## 
## $data$clean
##     index    riego geno bloque tubdw
## 1       1   sequia  G01     II 19.80
## 2       2   sequia  G02     IV 17.67
## 3       3 irrigado  G01    III 38.02
## 4       4   sequia  G02      I 13.51
## 5       5 irrigado  G03     II 51.15
…
library(inti)

model <- remove_outliers(data = fb
                             , formula = ttrans ~ riego * geno + (1|bloque)
                         , plot_diag = T)
model
## $data
## $data$raw
## # A tibble: 150 × 5
##    index riego    geno  bloque ttrans
##    <chr> <chr>    <chr> <chr>   <dbl>
##  1 1     sequia   G01   II       4.50
##  2 2     sequia   G02   IV       3.54
##  3 3     irrigado G01   III      8.39
##  4 4     sequia   G02   I        2.90
##  5 5     irrigado G03   II       7.37
##  6 6     irrigado G04   V       10.0 
##  7 7     irrigado G01   I        6.39
##  8 8     irrigado G05   IV       9.26
##  9 9     sequia   G06   II       4.36
## 10 10    sequia   G05   I        5.16
## # ℹ 140 more rows
## 
## $data$clean
##     index    riego geno bloque ttrans
## 1       1   sequia  G01     II  4.499
## 2       2   sequia  G02     IV  3.538
## 3       3 irrigado  G01    III  8.388
## 4       4   sequia  G02      I  2.904
## 5       5 irrigado  G03     II  7.370
…
library(inti)

model <- remove_outliers(data = fb
                             , formula = wue ~ riego * geno + (1|bloque)
                         , plot_diag = T)
model
## $data
## $data$raw
## # A tibble: 150 × 5
##    index riego    geno  bloque   wue
##    <chr> <chr>    <chr> <chr>  <dbl>
##  1 1     sequia   G01   II     11.5 
##  2 2     sequia   G02   IV     10.7 
##  3 3     irrigado G01   III     9.97
##  4 4     sequia   G02   I      10.7 
##  5 5     irrigado G03   II     10.9 
##  6 6     irrigado G04   V      10.2 
##  7 7     irrigado G01   I       8.62
##  8 8     irrigado G05   IV      9.67
##  9 9     sequia   G06   II     10.9 
## 10 10    sequia   G05   I      10.9 
## # ℹ 140 more rows
## 
## $data$clean
##     index    riego geno bloque       wue
## 1       1   sequia  G01     II 11.509224
## 2       2   sequia  G02     IV 10.689655
## 3       3 irrigado  G01    III  9.965427
## 4       4   sequia  G02      I 10.650826
## 5       5 irrigado  G03     II 10.876526
…
